[{"nama":"Syafizzah Zahin binti Sazali","aretisId":"Syafy","tajukSiri":"MASKOT","peranan":"Pelukis & Penulis","fbUrl":"https://www.facebook.com/syafy.zahin","fbUrlPage":"https://www.facebook.com/syafymio"},
{"nama":"Muhamad Irfan bin Nurul-Hilal","aretisId":"Irfan Hilal","tajukSiri":"IMAGINE","peranan":"Pelukis & Penulis","fbUrl":"https://www.facebook.com/irfan.hilal3","fbUrlPage":"https://www.facebook.com/IrfanHilalArt"},
{"nama":"Aznah binti Che Wan","aretisId":"Hanza","tajukSiri":"GANGSTER","peranan":"Pelukis & Penulis","fbUrl":"https://www.facebook.com/falcon.knight.96","fbUrlPage":"https://www.facebook.com/hanzaarts"},
{"nama":"Amna Syakira bt Ahmad Shukri","aretisId":"Amna Shark","tajukSiri":"PENDAR RATNA","peranan":"Pelukis & Penulis","fbUrl":"https://www.facebook.com/amnasyakira.ahmadshukri","fbUrlPage":"https://www.facebook.com/amnashark.art/"},
{"nama":"Nur Anis Hazirah bt Abd Halim","aretisId":"Anhaz","tajukSiri":"HIDDEN PRINCESS","peranan":"Penulis","fbUrl":"https://www.facebook.com/nuranhaz","fbUrlPage":"https://www.facebook.com/Anhaz-Arts-670622289685722/"},
{"nama":"Siti Maryam bt Mior Muhamad","aretisId":"Mar","tajukSiri":"D'RAKSHA","peranan":"Penulis","fbUrl":"https://www.facebook.com/siti.maryam.3557","fbUrlPage":"https://www.facebook.com/maryammior/"},
{"nama":"Muhammad Tirmizi bin Fakhri","aretisId":"Mizi","tajukSiri":"HIDDEN PRINCESS","peranan":"Pelukis","fbUrl":"https://www.facebook.com/kenmizi","fbUrlPage":"https://www.facebook.com/3121-Artworks-851286744901067/"},
{"nama":"Muhamad Khairul Azmi bin Khairudin","aretisId":"Khairul Exodus","tajukSiri":"SIRNA GERHANA","peranan":"Penulis","fbUrl":"https://www.facebook.com/keisayu.roxas","fbUrlPage":"https://www.facebook.com/khairulexodus"},
{"nama":"Noor Athirah binti Meor Aris","aretisId":"Harihtaroon","tajukSiri":"DRAKSHA","peranan":"Pelukis","fbUrl":"https://www.facebook.com/noor.athirah.756","fbUrlPage":"https://www.facebook.com/Harihtaroon/"},
{"nama":"Muhammad Emiree Fazrin bin Abdul Rahim","aretisId":"Pokcik Fingernailz","tajukSiri":"PARADIGMA GURU","peranan":"Pelukis & Penulis","fbUrl":"https://www.facebook.com/emiree.haemoglobin","fbUrlPage":"https://www.facebook.com/PokcikFingernailz/"},
{"nama":"Mohd Aniff bin Zazali","aretisId":"Aniff Zazali","tajukSiri":"TAMINGSARI","peranan":"Pelukis & Penulis","fbUrl":"https://www.facebook.com/aniff.zazali","fbUrlPage":"https://www.facebook.com/tamingsaricomic/"},
{"nama":"Mohd Harith Syazwan Bin Samsawi","aretisId":"E-One","tajukSiri":"TUAH","peranan":"Pelukis & Penulis","fbUrl":"https://www.facebook.com/mohdharith.syazwan","fbUrlPage":"https://www.facebook.com/Shiro-Animation-455709974555177/"},
{"nama":"Ahmad Hasif bin Amran","aretisId":"Hasif Rayyan","tajukSiri":"D'RAKSHA","peranan":"Penulis","fbUrl":"https://www.facebook.com/yuurayyan","fbUrlPage":"https://www.facebook.com/hasifyuurayyan/"},
{"nama":"Mohammad Sayuti bin Fakhri","aretisId":"Thief-loan","tajukSiri":"FORGIA","peranan":"Pelukis & Penulis","fbUrl":"https://www.facebook.com/sayuti.fakhri","fbUrlPage":"https://www.facebook.com/thiefloan/"},
{"nama":"Yasmin binti Zainul Aman","aretisId":"Ploless","tajukSiri":"SIRNA GERHANA","peranan":"Pelukis","fbUrl":"https://www.facebook.com/mengofsteel","fbUrlPage":"https://www.facebook.com/plolessyasmin/"},
{"nama":"Yee Zhao Foong","aretisId":"Yasahiro Yoruki","tajukSiri":"YORK","peranan":"Pelukis & Penulis","fbUrl":"https://www.facebook.com/zhaofoong.yee","fbUrlPage":"https://www.facebook.com/YasahiroYoruki/"},
{"nama":"Ahmad Ferdaus bin Ahmad Fahmi","aretisId":"Inderawasih","tajukSiri":"APA","peranan":"Pelukis & Penulis","fbUrl":"https://www.facebook.com/ferdaus92","fbUrlPage":"https://www.facebook.com/sanginderawasih"},
{"nama":"Siti Nurelyana binti Maurad","aretisId":"Nurel","tajukSiri":"DRAKSHA","peranan":"Pelukis","fbUrl":"https://www.facebook.com/nurel.maurad","fbUrlPage":"https://www.facebook.com/Nurel-1405386423009199"}]